IMA Math-to-Industry Bootcamp 2019: Statistics!
…
BirthdaysYearState<-group_by(Birthdays,year,state)
summarise(BirthdaysYearState, average=mean(births))
## # A tibble: 1,020 x 3
## # Groups:   year [20]
##     year state average
##    <int> <chr>   <dbl>
##  1  1969 AK       18.6
##  2  1969 AL      174. 
##  3  1969 AR       91.3
##  4  1969 AZ       93.3
##  5  1969 CA      954. 
##  6  1969 CO      110. 
##  7  1969 CT      134. 
##  8  1969 DC       75.3
##  9  1969 DE       27.6
## 10  1969 FL      292. 
## # … with 1,010 more rows
…
